{
    "key": "hipchat.blog.addon.aug",
    "name": "HipChat Blogs!",
    "description": "My very first HipChat add-on",
    "vendor": {
        "name": "Arthur Ken",
        "url": "https://www.otienoken.me"
    },
    "links": {
        "self": "{{localBaseUrl}}/atlassian-connect.json",
        "homepage": "{{localBaseUrl}}"
    },
    "capabilities": {
        "hipchatApiConsumer": {
            "scopes": [
                "send_notification",
                "view_room"
            ],
            "avatar": {
                "url": "{{localBaseUrl}}/img/logo.png",
                "url@2x": "{{localBaseUrl}}/img/logo.png"
            }
        },
        "installable": {
            "callbackUrl": "{{localBaseUrl}}/installable"
        },
        "configurable": {
            "url": "{{localBaseUrl}}/config"
        },
        "webhook": {
            "url": "{{localBaseUrl}}/webhook",
            "pattern": "^/blog",
            "event": "room_message",
            "name": "Blog Search!",
            "authentication": "jwt"
        },
        "glance": [{
            "name": {
                "value": "Hello!"
            },
            "queryUrl": "{{localBaseUrl}}/glance",
            "key": "sample.glance",
            "target": "sample.sidebar",
            "icon": {
                "url": "{{localBaseUrl}}/img/logo.png",
                "url@2x": "{{localBaseUrl}}/img/logo.png"
            }
        }],
        "webPanel": [{
            "key": "sample.sidebar",
            "name": {
                "value": "Hello Sidebar!"
            },
            "location": "hipchat.sidebar.right",
            "url": "{{localBaseUrl}}/sidebar"
        }],
        "dialog": [{
            "key": "sample.dialog",
            "title": {
                "value": "Hello Dialog!"
            },
            "url": "{{localBaseUrl}}/dialog",
            "options": {
                "style": "normal",
                "primaryAction": {
                    "name": {
                        "value": "Say Hello!"
                    },
                    "key": "sample.dialog.action",
                    "enabled": true
                },
                "size": {
                    "width": "400px",
                    "height": "200px"
                }
            }
        }],
        "action": [{
            "key": "sample.action",
            "name": {
                "value": "Open Hello Dialog!"
            },
            "target": "sample.dialog",
            "location": "hipchat.input.action"
        }]
    }
}